{
	"Id": "7850161",
	"Number": "7850161",
	"CaseNumber": "А32-7670/2021",
	"Publisher": {
		"Fio": {
			"LastName": "Стоян",
			"FirstName": "Роман",
			"MiddleName": "Сергеевич"
		},
		"Inn": "745310520162",
		"Snils": "13615578971",
		"CorrespondenceAddress": "454100, Россия, Челябинская область, г. Челябинск, ул. 40 лет Победы, д.5, а/я 9566",
		"Sro": {
			"Name": "Ассоциация \"Саморегулируемая организация арбитражных управляющих \"Меркурий\"",
			"Ogrn": "1037710023108",
			"Inn": "7710458616",
			"Address": "125047, Российская Федерация, г. Москва, ул. 4-я Тверская-Ямская, д. 2/11, стр. 2"
		}
	},
	"MessageInfo": {
		"Auction": {
			"Text": "Решением Арбитражного суда Краснодарского края от 07.04.2021г. по делу А32-7670/2021 Корчагина Виктория Александровна (28.09.1981г.р., место рожд: гор.Краснодар, адрес рег: 350049, Краснодарский край, Краснодар г, Севастопольская ул, дом № 4, квартира 51, СНИЛС07719145990, ИНН 230805321724) признан(а) несостоятельным(ой) (банкротом), введена процедура реализации имущества гражданина. Финансовым управляющим утвержден Стоян Роман Сергеевич (ИНН 745310520162, СНИЛС 13615578971, рег.номер 11/033369), член Ассоциации СОАУ \"МЕРКУРИЙ\" (ОГРН 1037710023108, ИНН 7710458616, адрес: 125047, г. Москва, ул. Тверская-Ямская 4-Я, д. 2/11, стр. 2).\n\nФинансовый управляющий имуществом должника Корчагиной Виктории Александровны (28.09.1981г.р., место рожд: гор.Краснодар, адрес рег: 350049, Краснодарский край, Краснодар г, Севастопольская ул, дом № 4, квартира 51, СНИЛС07719145990, ИНН 230805321724) сообщает о проведении повторных открытых торгов с открытой формой представления предложений о цене на ЭП ООО «Межрегиональная Электронная Торговая Система» в сети Интернет по адресу: https://m-ets.ru/ по продаже имущества должника.\n\nРАСХОДЫ ПО ОСУЩЕСТВЛЕНИЮ ГОСУДАРСТВЕННОЙ РЕГИСТРАЦИИ ПЕРЕХОДА ПРАВА СОБСТВЕННОСТИ НА ИМУЩЕСТВО К ПОКУПАТЕЛЮ В ПОЛНОМ ОБЪЕМЕ НЕСЕТ ПОКУПАТЕЛЬ.",
			"IsRepeat": "true",
			"Date": "2022-01-27T10:00:00",
			"TradeType": "OpenedAuction",
			"PriceType": "Public",
			"Application": {
				"TimeBegin": "2021-12-15T09:00:00",
				"TimeEnd": "2022-01-27T09:00:00",
				"Rules": ""
			},
			"TradeSite": "Межрегиональная Электронная Торговая Система",
			"IdTradePlace": "127",
			"LotTable": [
				{
					"Order": "1",
					"StartPrice": "783900.00",
					"Step": "5.00",
					"Advance": "10",
					"Description": "Нежилое помещение, кадастровый номер\nобъекта: 23:43:0141004:518, площадь\nобъекта: 45.60 кв.м., адрес объекта:\nКраснодарский край, г.Краснодар,\nПрикубанский внутригородской округ,\nул.40летия Победы, д.33/1, пом.28",
					"AuctionStepUnit": "Percent",
					"AdvanceStepUnit": "Percent",
					"ClassifierCollection": [
						{
							"Code": "0101015",
							"Name": "Здания (кроме жилых) и сооружения, не включенные в другие группировки"
						}
					]
				},
				{
					"Order": "2",
					"StartPrice": "251100.00",
					"Step": "5.00",
					"Advance": "10",
					"Description": "Нежилое помещение, кадастровый номер\nобъекта: 23:43:0141004:517, площадь\nобъекта: 14.60 кв. м., адрес объекта:\nКраснодарский край, г.Краснодар,\nПрикубанский внутригородской округ,\nул.40летия Победы, д.33/1, пом.27",
					"AuctionStepUnit": "Percent",
					"AdvanceStepUnit": "Percent",
					"ClassifierCollection": [
						{
							"Code": "0101015",
							"Name": "Здания (кроме жилых) и сооружения, не включенные в другие группировки"
						}
					]
				},
				{
					"Order": "3",
					"StartPrice": "752400.00",
					"Step": "5.00",
					"Advance": "10",
					"Description": "Нежилое помещение, кадастровый номер\nобъекта: 23:43:0141004:516, площадь\nобъекта: 43.80 кв. м. адрес объекта:\nКраснодарский край, г.Краснодар,\nПрикубанский внутригородской округ,\nул.40летия Победы, д.33/1, пом.30",
					"AuctionStepUnit": "Percent",
					"AdvanceStepUnit": "Percent",
					"ClassifierCollection": [
						{
							"Code": "0101015",
							"Name": "Здания (кроме жилых) и сооружения, не включенные в другие группировки"
						}
					]
				}
			],
			"AdditionalText": "Ознакомление с имуществом:\n\nСрок и порядок внесения задатка:\nДля участия в торгах задаток перечисляется по следующим реквизитам:\n\nПодведение результатов торгов:\n\nПорядок заключения договора купли-продажи имущества:\n\nСрок заключения договора купли-продажи имущества:\n\nУсловия оплаты имущества:\nПобедитель торгов перечисляет денежные средства в оплату приобретенного имущества\nпо следующим реквизитам:\n\nОрганизатор торгов: Финансовый управляющий Стоян Роман Сергеевич\n"
		}
	},
	"Bankrupt": {
		"Category": {
			"Code": "SimplePerson",
			"Description": "Физическое лицо"
		},
		"Fio": {
			"LastName": "Корчагина",
			"FirstName": "Виктория",
			"MiddleName": "Александровна"
		},
		"Inn": "230805321724",
		"Snils": "07719145990",
		"Address": "350049, Краснодарский край, Краснодар г, Севастопольская ул, дом № 4, квартира 51",
		"Birthdate": "28.09.1981",
		"Birthplace": "гор.Краснодар"
	},
	"PublishDate": "2021-12-12",
	"BankruptId": "533334",
	"MessageGUID": "3BC3A32472CFF9397DE43A77E7C03557",
	"FileInfoList": [
		{
			"Name": "Трехсторонний договор о задатке - торги по банкротству (1).docx",
			"Hash": "45605F9CF4BB0D4809F427375D3BE25BCE260A35DC84ACA4FDF5D607E7CCE8E25C71657A7F921B020FD84E6C78F490DB39F9768EADA78694AD48B03753F312E4"
		},
		{
			"Name": "Договор купли-продажи Лот 1.docx",
			"Hash": "2770CC203DC0F7B7335803BCAE5AC5ED2EC3ED849113540914A16E9ACDB9DBB7800C071E4ACCF9B1C28209A47EB06BE54AAEAC41E998EDFF9245F97C3E81499B"
		},
		{
			"Name": "Договор купли-продажи Лот 2.docx",
			"Hash": "41AC11E14AC93E749ED0860FD11078A143E2595F3B3C73D7E0CB023B7BF06A80AC1DAD21E42B72ECE08C4CF753760B0D4B86F8FA93061891CEE802BC335C89EC"
		},
		{
			"Name": "Договор купли-продажи Лот 3.docx",
			"Hash": "96B6D642B5E0C4D16D9AEAC260884FA9B4B7A2A2D062E71AA19708465EA463651AE53AE13A2CD8658B3751FED4BC2322C0F399277801AF9C721EB66439548371"
		}
	]
}