{
	"Версия_формата": "2",
	"Наименование": "Торги 0",
	"URL": "a.o.ru",
	"Электронная_торговая_площадка": {
		"Наименование": "Межотраслевая торговая система \"Фабрикант\"",
		"text": "Межотраслевая торговая система \"Фабрикант\"",
		"url": "www.fabrikant.ru",
		"operator": "ООО \"Фабрикант.ру\""
	},
	"Банкротство": {
		"Должник": {
			"Тип": "Юридическое лицо",
			"Юридическое_лицо": {
				"Наименование": "ООО Роги и ноги",
				"ИНН": "6449013711",
				"ОГРН": "1026402000657"
			}
		},
		"Номер_дела_о_банкротстве": "234534345",
		"Арбитражный_суд": "Левый арбитражный суд Тофаларской автономной области",
		"Арбитражный_управляющий": {
			"Фамилия": "Парамонов",
			"Имя": "Парамон",
			"Отчество": "Парамонович",
			"ИНН": "466893464065",
			"СРО_АУ": {
				"Наименование": "НП СРО АУ Левое"
			}
		}
	},
	"Форма_проведения_торгов": "Открытый аукцион",
	"Лоты": [
		{
			"Номер": "1",
			"Наименование": "Здавние торгового комплекса",
			"Состав_характеристики_описание": "Здание торговое,\n10000 кв.м, 3 этажа, подземный паркинг\nкод 123:3456456:2344523:4539",
			"Адрес_местонахождения": "Удмуртская Республика, г. Ижевск, Песочная 13",
			"Порядок_ознакомления": "приходите, знакомиться в пятницу 13 октября с 5:00 до полуночи",
			"Начальная_цена_в_рублях": "10000000009",
			"Величина_повышения_начальной_цены_в_рублях": "100000009",
			"Размер_задатка_в_рублях": "100000009"
		},
		{
			"Номер": "2",
			"Наименование": "Велосипед",
			"Состав_характеристики_описание": "Велосипед горный",
			"Адрес_местонахождения": "Республика Башкирия, г. Уфа, Пушкина 10",
			"Порядок_ознакомления": "12 сентября 2017 года, в 11:00",
			"Начальная_цена_в_рублях": "150000",
			"Величина_повышения_начальной_цены_в_рублях": "10000",
			"Размер_задатка_в_рублях": "10000"
		},
		{
			"Номер": "3",
			"Наименование": "Дебиторская задолженность",
			"Состав_характеристики_описание": "Дебиторская задолженность от 20 контрагентов",
			"Адрес_местонахождения": "Московская область, г. Химки, Петрова 6",
			"Порядок_ознакомления": "",
			"Начальная_цена_в_рублях": "238476",
			"Величина_повышения_начальной_цены_в_рублях": "100",
			"Размер_задатка_в_рублях": "42378"
		}
	],
	"Регламенты": {
		"Регламент_проведения_торгов": {
			"Представление_заявок_об_участии": {
				"Срок_и_время": {
					"начало": {
						"дата": "01.12.2001",
						"время": "10:00"
					},
					"окончание": {
						"дата": "01.01.2001",
						"время": "10:01"
					}
				}
			},
			"Представление_предложений_о_цене": {
				"Срок_и_время": {
					"начало": {
						"дата": "03.03.2003",
						"время": "10:03"
					}
				}
			}
		}
	},
	"Опубликованные_объявления_о_проведении_торгов": {
		"Объявление_о_проведении_торгов_в_ЕФРСБ": {
			"Номер": "0"
		},
		"Объявление_о_торгах_в_Федеральном_СМИ": {
			"дата": "04.04.2004",
			"номер_выпуска": "4"
		},
		"Объявление_о_торгах_в_Местном_СМИ": {
			"Наименование": "Удмуртская правда",
			"дата": "05.05.2005",
			"номер_тиража": "5"
		}
	}
}