[
	{
		"id": 2,
		"СокращённоеНазвание": "Задолженность в 1000000 рублей от ООО Талан",
		"Группа": "дебиторская задолженность",
		"ОценочнаяСтоимость": 100000
	},
	{
		"id": 0,
		"СокращённоеНазвание": "Здание многофункциональное к/н 47:14:1203001:145, пл. 1000 кв. м., по адресу: Удмуртская Республика, г. Ижевск, Песочная 13",
		"Группа": "Недвижимость",
		"ОценочнаяСтоимость": 100000009,
		"Информация_об_объекте": {
			"Кадастровый_номер": "47:14:1203001:145",
			"Вид": "Здание",
			"Назначение": "Сооружение многофункциональное",
			"Площадь": 1000,
			"Адрес": "Удмуртская Республика, г. Ижевск, Песочная 13"
		},
		"Гос_регистрация_права": {
			"Дата": "06.12.2011",
			"Номер": "71-АГ 555734",
			"Основание": "Договор продажи №23",
			"Вид_права": "Собственность"
		}
	}
]