{
	"Версия_формата": "2",
	"Электронная_торговая_площадка": {
		"Наименование": "МЕТА-ИНВЕСТ",
		"IdTradePlace": "140"
	},
	"Банкротство": {
		"Должник": {
			"BankruptId": "256681",
			"Bankrupt_Category_Code": "DevelopmentOrganization",
			"Тип": "Юридическое лицо",
			"Юридическое_лицо": {
				"Наименование": "ООО \"СТРОЙПЛЮС\"",
				"ИНН": "5003051676",
				"ОГРН": "1045000919732"
			},
			"Адрес": "142762, Город Москва, Поселение Филимонковское, Деревня Марьино, Улица Филимонковская, ОАО \"МАРЬИНСКАЯ ПТИЦЕФАБРИКА\""
		},
		"Номер_дела_о_банкротстве": "А40-195154/2017 187-261 «Б»",
		"Арбитражный_управляющий": {
			"Фамилия": "Новиков",
			"Имя": "Павел",
			"Отчество": "Васильевич",
			"ИНН": "772109351283",
			"СНИЛС": "09427548397",
			"ОГРН": "304770001311653",
			"Почтовый_адрес": "121099, г. Москва, а/я 1",
			"СРО_АУ": {
				"Наименование": "Ассоциация МСОПАУ - Ассоциация \"Московская саморегулируемая организация профессиональных арбитражных управляющих\"",
				"ОГРН": "1027701024878",
				"ИНН": "7701321710",
				"Адрес": "101000, г. Москва, Лубянский проезд, д. 5, стр. 1"
			}
		}
	},
	"Организатор_торгов": {
		"Информация_в_объявление_для_участников_торгов": {
			"адрес_электронной_почты": "",
			"номер_контактного_телефона": "",
			"почтовый_адрес": "",
			"дополнительные_сведения": ""
		}
	},
	"Форма_проведения_торгов": "Публичное предложение",
	"Форма_представления_предложений_цены": "открытая",
	"Торги_повторные": "false",
	"Лоты": [
		{
			"Номер": "4",
			"Состав_характеристики_описание": "Земельный участок площадью 1708  кв.м. с кадастровым номером 50:21:0150111:1004, Адрес: город Москва, поселение Филимонковское, пос. Марьино.",
			"Адрес_местонахождения": "",
			"Порядок_ознакомления": "",
			"Начальная_цена_в_рублях": "258249.60",
			"Величина_повышения_начальной_цены_в_рублях": "10000.00",
			"Размер_задатка_в_рублях": "25824.96",
			"Расчетные_формулы": {
				"Размер_задатка": {
					"Процентов_от_начальной_цены": "10"
				}
			},
			"КлассификацияЕФРСБ": [
				{
					"Код": "0108001",
					"Наименование": "Земельные участки"
				}
			]
		}
	],
	"Регламенты": {
		"Регламент_проведения_торгов": {
			"Оформление_участия": {
				"Порядок_оформления_участия_в_торгах": "",
				"Требования_к_оформлению_документов": "",
				"Перечень_представляемых_участниками_торгов_документов": []
			},
			"Представление_заявок_об_участии": {
				"Порядок": "",
				"Срок_и_время": {
					"начало": {
						"дата": "10.01.2022",
						"время": "10:00"
					},
					"окончание": null
				}
			},
			"Внесение_задатков": {
				"Порядок": "",
				"Оговорка_о_возврате": "",
				"Реквизиты_для_перечисления_денежных_средств": {
					"Текстом": ""
				},
				"Сроки": {
					"текстом": ""
				}
			},
			"Допуск_к_торгам": {
				"Порядок": ""
			},
			"Представление_предложений_о_цене": {
				"Срок_и_время": {
					"начало": null
				}
			}
		},
		"Регламент_завершения_торгов": {
			"Выявление_победителей": {
				"Порядок": "",
				"Критерии": ""
			},
			"Подведение_результатов": {
				"Дата_и_время": null,
				"Порядок": "",
				"Место": ""
			}
		},
		"Регламент_купли_продажи": {
			"Заключение_договора": {
				"Порядок": "",
				"Срок": ""
			},
			"Платежи": {
				"Сроки": "",
				"Реквизиты_для_перечисления_денежных_средств": {
					"Текстом": ""
				},
				"Оговорка_об_учете_задатка": ""
			},
			"Передача_имущества": {
				"Порядок": "",
				"Оговорка_о_расходах_на_регистрацию_права_собственности": ""
			}
		}
	},
	"Опубликованные_объявления_о_проведении_торгов": {
		"Объявление_о_проведении_торгов_в_ЕФРСБ": {
			"Номер": "7941187",
			"дата": "24.12.2021",
			"MessageGUID": "C5DE74E0BBCC2F29EF844841A116ECA3",
			"Id": "7941187",
			"Text": "Решением Арбитражного суда города Москвы от 28.03.2019г. (дата оглашения резолютивной части решения) по делу №А40-195154/2017 ООО «СТРОЙПЛЮС» (ИНН 5003051676, ОГРН 1045000919732, юридический адрес: 142762, г Москва, поселение Филимонковское, д Марьино, ул Филимонковская, ОАО \"Марьинская Птицефабрика\") признано несостоятельным (банкротом), в отношении него открыта процедура конкурсного производства сроком на один год с применением положений параграфа с Федерального закона от 26.10.2002 г. №127-ФЗ «О несостоятельности (банкротстве)» . Конкурсным управляющим утверждён Новиков Павел Васильевич (ИНН: 772109351283; СНИЛС: 094-275-483-97; адрес для корреспонденции: 121099, г. Москва, а/я 1; тел.: +7 (916) 183-87-71; член Ассоциации МСОПАУ — Ассоциация «Московская саморегулируемая организация профессиональных арбитражных управляющих», (ИНН 7701321710, ОГРН 1027701024878, адрес: 125362, г. Москва, ул. Вишневая, д. 5).\n\nОрганизатор торгов, конкурсный управляющий ООО «СТРОЙПЛЮС» (ИНН 5003051676, ОГРН 1045000919732, 142762, г Москва, поселение Филимонковское, д Марьино, ул. Филимонковская, ОАО \"Марьинская Птицефабрика\"),  Новиков П.В. (ИНН 772109351283 ; СНИЛС 094-275-483 97; член Ассоциации МСОПАУ, ОГРН 1027701024878 , ИНН 7701321710 , факт. адрес: 125362, Москва, ул. Вишневая, д. 5), действующий на основании решения Арбитражного суда города Москвы от 04.04.2019 г. по делу №А40-195154/2017, сообщает, что победитель (единственный участник) повторных торгов № ОАОФЦП-6965 (сообщение № 12010289399 в газете Коммерсант №184 от 09.10.2021, № 12010296090 на стр. 185 №221(7183) от 04.12.2021) отказался от заключения договора купли-продажи, в связи с чем конкурсный управляющий сообщает о проведении торгов в форме публичного предложения. На торги выставлено следующее имущество:\n\nЛот №4. Земельный участок площадью 1708 кв. м с кадастровым номером 50:21:0150111:1004, адрес: город Москва, поселение Филимонковское, пос. Марьино. Начальная цена - 258 249,60 руб.\n\nОзнакомление с имуществом производится в период всего срока приема заявок по адресу местонахождения имущества по предварительной договоренности с управляющим по тел.: +7(916)183-87-71, e-mail: novikovpv777@gmail.com, почт. адрес: 121099, г. Москва, а/я 1."
		}
	},
	"Приложения": [
		{
			"Файл": "Проект_договора_о_задатке_Стройплюс.doc",
			"Hash": "8D37FECAA46CCA7AF158DA953E70CDE20C4136F14CC18E58068C97B2D6C8AB3A92A111B1F2E83CFF0585D5EF4C8E91848F1DD0759C8654E77E0E3EF84A2790D7"
		},
		{
			"Файл": "Проект договор купли продажи ЗУ Стройплюс.doc",
			"Hash": "0CA66D2727873DAA2D81CA43EA4CFF64D11A7E91EA28D94DFF62D7B669F92A42F75452E69A2AB3CDFFE26C196DBA92EC4AA7A34348253B3EE1726017A91ABE6E"
		}
	]
}