{
	"Версия_формата": "2",
	"Электронная_торговая_площадка": {
		"Наименование": "Альфалот",
		"IdTradePlace": "157"
	},
	"Банкротство": {
		"Должник": {
			"BankruptId": "546974",
			"Bankrupt_Category_Code": "SimplePerson",
			"Тип": "Физическое лицо",
			"Физическое_лицо": {
				"Фамилия": "Купцов",
				"Имя": "Владимир",
				"Отчество": "Владимирович",
				"ИНН": "643905552333",
				"СНИЛС": "14130633408",
				"Дата_рождения": "11.02.1987",
				"Место_рождения": "г. Балаково Саратовская обл."
			},
			"Адрес": "413863, Саратовская обл, г Балаково, ул Набережная Леонова, 66, 70"
		},
		"Номер_дела_о_банкротстве": "А57-7193/2021",
		"Арбитражный_управляющий": {
			"Фамилия": "Гудалов",
			"Имя": "Сергей",
			"Отчество": "Геннадьевич",
			"ИНН": "583709874440",
			"СНИЛС": "10876792499",
			"Почтовый_адрес": "440000, г. Пенза, ул. Бакунина/Володарского, 60/69, корпус Б",
			"СРО_АУ": {
				"Наименование": "Союз арбитражных управляющих \"Саморегулируемая организация \"ДЕЛО\"",
				"ОГРН": "1035002205919",
				"ИНН": "5010029544",
				"Адрес": "125284, г Москва, г. Москва, Хорошевское шоссе, 32А (фактический адрес), оф.300, а/я 22"
			}
		}
	},
	"Организатор_торгов": {
		"Информация_в_объявление_для_участников_торгов": {
			"адрес_электронной_почты": "",
			"номер_контактного_телефона": "",
			"почтовый_адрес": "",
			"дополнительные_сведения": ""
		}
	},
	"Форма_проведения_торгов": "Публичное предложение",
	"Форма_представления_предложений_цены": "закрытая",
	"Торги_повторные": "false",
	"Лоты": [
		{
			"Номер": "1",
			"Состав_характеристики_описание": "Марка и(или) модель: LADA 217230 LADA PRIORA\nГод выпуска: 2008\nИдентификационный номер (VIN):\nXTA21723080006308\nНомер шасси (рамы): -\nНомер кузова (кабины): XTA21723080006308\nЦвет кузова (кабины): ГРАФИТОВЫЙ\nМЕТАЛИК\nНомер двигателя: 2168065\nРабочий объем (см³): 1596.0\nМощность (кВт/л.с.): 72.000/97.0\nТип транспортного средства: Легковые\nавтомобили комби (хэтчбек)",
			"Адрес_местонахождения": "",
			"Порядок_ознакомления": "",
			"Начальная_цена_в_рублях": "493799.99",
			"Размер_задатка_в_рублях": "49380.00",
			"Расчетные_формулы": {
				"Размер_задатка": {
					"Процентов_от_начальной_цены": "10"
				}
			},
			"КлассификацияЕФРСБ": [
				{
					"Код": "0106008",
					"Наименование": "Автомобили"
				}
			]
		}
	],
	"Регламенты": {
		"Регламент_проведения_торгов": {
			"Оформление_участия": {
				"Порядок_оформления_участия_в_торгах": "",
				"Требования_к_оформлению_документов": "",
				"Перечень_представляемых_участниками_торгов_документов": []
			},
			"Представление_заявок_об_участии": {
				"Порядок": "",
				"Срок_и_время": {
					"начало": {
						"дата": "20.12.2021",
						"время": "10:00"
					},
					"окончание": {
						"дата": "31.01.2022",
						"время": "10:00"
					}
				}
			},
			"Внесение_задатков": {
				"Порядок": "",
				"Оговорка_о_возврате": "",
				"Реквизиты_для_перечисления_денежных_средств": {
					"Текстом": ""
				},
				"Сроки": {
					"текстом": ""
				}
			},
			"Допуск_к_торгам": {
				"Порядок": ""
			},
			"Представление_предложений_о_цене": {
				"Срок_и_время": {
					"начало": {
						"дата": "31.01.2022",
						"время": "10:00"
					}
				}
			}
		},
		"Регламент_завершения_торгов": {
			"Выявление_победителей": {
				"Порядок": "",
				"Критерии": ""
			},
			"Подведение_результатов": {
				"Дата_и_время": {
					"дата": "31.01.2022",
					"время": "10:00"
				},
				"Порядок": "",
				"Место": ""
			}
		},
		"Регламент_купли_продажи": {
			"Заключение_договора": {
				"Порядок": "",
				"Срок": ""
			},
			"Платежи": {
				"Сроки": "",
				"Реквизиты_для_перечисления_денежных_средств": {
					"Текстом": ""
				},
				"Оговорка_об_учете_задатка": ""
			},
			"Передача_имущества": {
				"Порядок": "",
				"Оговорка_о_расходах_на_регистрацию_права_собственности": ""
			}
		}
	},
	"Опубликованные_объявления_о_проведении_торгов": {
		"Объявление_о_проведении_торгов_в_ЕФРСБ": {
			"Номер": "7899555",
			"дата": "20.12.2021",
			"MessageGUID": "832E02D82B8275385FD461CAA3BE5614",
			"Id": "7899555",
			"Text": "Организатор торгов – финансовый управляющий Купцова Владимира Владимировича (дата рождения: 11.02.1987 г., место рождения: г. Балаково Саратовская обл., СНИЛС 141-306-334 08, ИНН 643905552333, адрес регистрации по месту жительства: 413863, Саратовская обл, г Балаково, ул Набережная Леонова, 66, 70) Гудалов Сергей Геннадьевич (ИНН 583709874440, СНИЛС 108-767-924 99) - член САУ \"СРО \"ДЕЛО\" (ОГРН 1035002205919, ИНН 5010029544, адрес: 105082, г. Москва, Балакиревский пер., 19 (фактический адрес), действующий на основании Решения Арбитражного суда Саратовской области от 11.05.2021 г. по делу № А57-7193/2021, сообщает что торги назначенные на 16.12.2021  признаны несостоявшимися в связи с отсутствием заявок и о начале повторных торгов в форме публичного предложения с закрытой формой представления предложений о цене.\n\nПредмет торгов:\n\nЛот №1:\n\nМарка и(или) модель: LADA 217230 LADA PRIORA\nГод выпуска: 2008\nИдентификационный номер (VIN):\nXTA21723080006308\nНомер шасси (рамы): -\nНомер кузова (кабины): XTA21723080006308\nЦвет кузова (кабины): ГРАФИТОВЫЙ\nМЕТАЛИК\nНомер двигателя: 2168065\nРабочий объем (см³): 1596.0\nМощность (кВт/л.с.): 72.000/97.0\nТип транспортного средства: Легковые\nавтомобили комби (хэтчбек)\n\nНачальная цена: 493 799,99 рублей.\n\n\nВеличина снижения начальной цены продажи имущества должника – «шаг снижения» - устанавливается равным 10 % начальной цены, установленной для торгов посредством публичного предложения.\nСрок, по истечении которого последовательно снижается начальная цена – каждые 7 календарных дней.\nРазмер задатка - 10% от начальной цены, установленной для соответствующего периода проведения торгов\nТорги проводятся в электронной форме на электронной торговой площадке «Альфалот», размещенной на сайте https://alfalot.ru/ в сети Интернет.\n\nЗадаток перечисляется на специальный счет должника по следующим реквизитам:\nПолучатель: ООО «Аукционы Федерации»\nИНН 0278184720\nКПП 027801001\nР/с 40702810729330000981\nФ-л «Нижегородский» АО «Альфа-Банк» г. Нижний Новгород\nБИК 042202824,\nК/с 30101810200000000824.\n\nОсмотр имущества осуществляется по четвергам по адресу: Саратовская обл, г Балаково с 13:00 до 17:00 по предварительному согласованию с финансовым управляющим путем направления запроса на электронную почту sacspb_144@mail.ru, в виде отсканированного документа с подписью для физических лиц , с печатью и подписью уполномоченного лица для индивидуальных предпринимателей и юридических лиц, с приложением документов, подтверждающих полномочия на подписание запроса. Финансовый управляющий оставляет за собой право не предоставлять информацию на некорректно направленный запрос в адрес организатора торгов.\n\nВо избежание претензий к АУ относительно технического состояния имущества (лота), его комплектности, покупателю действуя добросовестно, необходимо проявить должную осмотрительность и выехать по месту нахождения имущества (лота) с целью его осмотра - личного либо через законного представителя (с надлежащим образом оформленной доверенностью). Арбитражный управляющий обеспечивает возможность получения имущества(лота) покупателем: путём предоставления покупателю нотариальной доверенности с ограниченными полномочиями на лицо предоставленное арбитражному управляющему покупателем в целях регистрации имущества (лота), либо осуществляет выезд на место нахождения имущества (лота) с целью регистрации имущества (лота) за счёт средств покупателя (транспортные расходы, проживание и регистрация необходимых документов в нотариальных и иных органах) и его идентификации. Доступ к имуществу (смена замков, передача личных вещей бывшему собственнику и т.д.) осуществляется покупателем своими силами и за свой счет.\n\nПо итогам проведения торгов организатор торгов утверждает протокол о результатах проведения торгов, который размещается на электронной площадке. В течение 5 дней с даты утверждения протокола о результатах торгов финансовый управляющий подписывает с победителем торгов договор купли-продажи имущества Должника в соответствии с представленным победителем торгов предложением о цене продажи имущества Должника. В случае отказа или уклонения победителя торгов от подписания данного договора финансовый управляющего внесенный задаток ему не возвращается и финансовый управляющий вправе предложить заключить договор купли-продажи имущества Должника участнику торгов, которым предложена наиболее высокая цена продажи имущества Должника по сравнению с ценой продажи имущества Должника, предложенной другими участниками торгов, за исключением победителя торгов. Победитель торгов обязан в течение 30 дней со дня подписания договора купли-продажи оплатить стоимость приобретенного имущества (за вычетом внесенного задатка), путем перечисления денежных средств на счет должника по следующим реквизитам:\n\nПолучатель – Купцов Владимир Владимирович\nБанк Получателя – Пензенское отделение № 8624 ПАО \"Сбербанк\"\nИНН 7707083893\nсчет 40817810348007834727\nБИК 045655635\nКор. счет 30101810000000000635\n\nСуммы внесенных заявителями задатков возвращаются всем заявителям, за исключением победителя торгов, в течение 5 рабочих дней со дня утверждения протокола о результатах проведения торгов. В случае если не были представлены заявки на участие в торгах или к участию в торгах был допущен только один участник, организатор торгов принимает решение о признании торгов несостоявшимися."
		}
	},
	"Приложения": [
		{
			"Файл": "ДКП.doc",
			"Hash": "5161A8DCD2C19DB49EB21E724FDEAE229FAE5981393E8115BEE42946CE346D6EF64CD22855FC5AFDE7ACD50D45FBA2579115EE04ACF7291B3B9BEC076FB142B7"
		},
		{
			"Файл": "Договор о задатке.docx",
			"Hash": "0A584B653CF099C628FF2CB80347F7D628262FB315766C52123CA3AD93BBAEDDCFE274A8038C8BB658EAAC064063B83FEB5C1E57FA12CBAE67423AADCF7652EF"
		}
	]
}